new_project.utf8.md
…
d <- correlate(brisbane.climateDay)

## 
## Correlation method: 'pearson'
## Missing treated using: 'pairwise.complete.obs'

a <- rearrange(d)
a

## # A tibble: 21 x 22
##    rowname   Temp Air.Temperature~ MaxTemp Nitrogen.Oxides~ Pressure
##    <chr>    <dbl>            <dbl>   <dbl>            <dbl>    <dbl>
##  1 Temp    NA                0.870   0.937           -0.652   -0.714
##  2 Air.Te~  0.870           NA       0.815           -0.667   -0.638
##  3 MaxTemp  0.937            0.815  NA               -0.553   -0.726
##  4 Nitrog~ -0.652           -0.667  -0.553           NA        0.421
##  5 Pressu~ -0.714           -0.638  -0.726            0.421   NA    
##  6 MinTemp  0.849            0.766   0.732           -0.628   -0.595
##  7 Carbon~ -0.507           -0.621  -0.405            0.676    0.287
##  8 Evapor~  0.550            0.573   0.501           -0.494   -0.378
##  9 Wind.D~ -0.467           -0.576  -0.424            0.488    0.221
## 10 Wind.S~  0.213            0.257   0.137           -0.332   -0.180
## # ... with 11 more rows, and 16 more variables: MinTemp <dbl>,
## #   Carbon.Monoxide..ppm. <dbl>, Evaporation <dbl>,
## #   Wind.Direction..degTN. <dbl>, Wind.Speed..m.s. <dbl>, Group.1 <dbl>,
## #   PM2.5..ug.m.3. <dbl>, PM10..ug.m.3. <dbl>, Sunshine <dbl>,
## #   Rainfall <dbl>, RISK_MM <dbl>, RainToday <dbl>, Cloud <dbl>,
## #   Relative.Humidity.... <dbl>, RainTomorrow <dbl>, Humidity <dbl>
…
